{
  "kind": "collectionType",
  "collectionName": "works",
  "info": {
    "name": "Work",
    "description": ""
  },
  "options": {
    "increments": true,
    "timestamps": true,
    "draftAndPublish": true
  },
  "attributes": {
    "slug": {
      "type": "string"
    },
    "thumbnail": {
      "type": "string"
    },
    "workObj": {
      "type": "json"
    }
  }
}
